digraph G {
  graph [rank=sink]
  subgraph cluster_0 {
    label = "Services Cluster";
    color=black;
    node [style=filled];
    REST -> "API\nService" -> NATS
    "API\nService" -> Vault [dir=both]
    Vault -> Postgres [dir=both]
    NATS -> "Pleo\n(Run)\nService" [dir=both];
    NATS -> "Phylax\n(Monitor)\nService" [style=dashed];
    NATS -> "Workflow\nDefinition\nService";
    "Workflow\nDefinition\nService" -> "MongoDB" [dir=both];
    "Phylax\n(Monitor)\nService" -> "MongoDB" [dir=both];
    NATS -> "Build\nService";
  }

  subgraph cluster_1 {
    node [style=filled];
    "User\nCluster"
    color=red
  }

  subgraph cluster_2 {
    node [style=filled];
    "Github"
    color=blue
  }

  subgraph cluster_3 {
    node [style=filled];
    "Gitlab"
    color=blue
  }

  "Pleo\n(Run)\nService" -> "User\nCluster";
  "Github" -> "Workflow\nDefinition\nService"[dir="both"]
  "Gitlab" -> "Workflow\nDefinition\nService"[dir="both"]
}
